# 3ds Max Wavefront OBJ Exporter v0.94b - (c)2007 guruware
# File Created: 21.03.2013 21:36:05

newmtl wire_088144225
	Ns 32
	d 1
	Tr 1
	Tf 1 1 1
	illum 2
	Ka 0.0000 0.0000 0.0000
	Kd 0.3451 0.5647 0.8824
	Ks 0.3500 0.3500 0.3500

newmtl wire_214228153
	Ns 32
	d 1
	Tr 1
	Tf 1 1 1
	illum 2
	Ka 0.0000 0.0000 0.0000
	Kd 0.8392 0.8941 0.6000
	Ks 0.3500 0.3500 0.3500

newmtl wire_145028177
	Ns 32
	d 1
	Tr 1
	Tf 1 1 1
	illum 2
	Ka 0.0000 0.0000 0.0000
	Kd 0.5686 0.1098 0.6941
	Ks 0.3500 0.3500 0.3500

newmtl 07___Default
	Ns 10.0000
	Ni 1.5000
	d 1.0000
	Tr 1.0000
	Tf 1.0000 1.0000 1.0000 
	illum 2
	Ka 0.0000 0.0000 0.0000
	Kd 0.5882 0.5882 0.5882
	Ks 0.0000 0.0000 0.0000
	Ke 0.0000 0.0000 0.0000

newmtl wire_088199225
	Ns 32
	d 1
	Tr 1
	Tf 1 1 1
	illum 2
	Ka 0.0000 0.0000 0.0000
	Kd 0.3451 0.7804 0.8824
	Ks 0.3500 0.3500 0.3500

newmtl wire_154215229
	Ns 32
	d 1
	Tr 1
	Tf 1 1 1
	illum 2
	Ka 0.0000 0.0000 0.0000
	Kd 0.6039 0.8431 0.8980
	Ks 0.3500 0.3500 0.3500

newmtl wire_027177088
	Ns 32
	d 1
	Tr 1
	Tf 1 1 1
	illum 2
	Ka 0.0000 0.0000 0.0000
	Kd 0.1059 0.6941 0.3451
	Ks 0.3500 0.3500 0.3500

newmtl Material__31
	Ns 10.0000
	Ni 1.5000
	d 0.0000
	Tr 0.0000
	Tf 0.0000 0.0000 0.0000 
	illum 2
	Ka 0.0000 0.0000 0.0000
	Kd 0.5880 0.5880 0.5880
	Ks 0.0000 0.0000 0.0000
	Ke 0.0000 0.0000 0.0000

newmtl wire_141007058
	Ns 32
	d 1
	Tr 1
	Tf 1 1 1
	illum 2
	Ka 0.0000 0.0000 0.0000
	Kd 0.5529 0.0275 0.2275
	Ks 0.3500 0.3500 0.3500

newmtl wire_148177027
	Ns 32
	d 1
	Tr 1
	Tf 1 1 1
	illum 2
	Ka 0.0000 0.0000 0.0000
	Kd 0.5804 0.6941 0.1059
	Ks 0.3500 0.3500 0.3500

newmtl wire_198225087
	Ns 32
	d 1
	Tr 1
	Tf 1 1 1
	illum 2
	Ka 0.0000 0.0000 0.0000
	Kd 0.7765 0.8824 0.3412
	Ks 0.3500 0.3500 0.3500

newmtl wire_213154229
	Ns 32
	d 1
	Tr 1
	Tf 1 1 1
	illum 2
	Ka 0.0000 0.0000 0.0000
	Kd 0.8353 0.6039 0.8980
	Ks 0.3500 0.3500 0.3500

newmtl wire_184155229
	Ns 32
	d 1
	Tr 1
	Tf 1 1 1
	illum 2
	Ka 0.0000 0.0000 0.0000
	Kd 0.7216 0.6078 0.8980
	Ks 0.3500 0.3500 0.3500

newmtl wire_008008136
	Ns 32
	d 1
	Tr 1
	Tf 1 1 1
	illum 2
	Ka 0.0000 0.0000 0.0000
	Kd 0.0314 0.0314 0.5333
	Ks 0.3500 0.3500 0.3500

newmtl wire_176026026
	Ns 32
	d 1
	Tr 1
	Tf 1 1 1
	illum 2
	Ka 0.0000 0.0000 0.0000
	Kd 0.6902 0.1020 0.1020
	Ks 0.3500 0.3500 0.3500

newmtl wire_224086086
	Ns 32
	d 1
	Tr 1
	Tf 1 1 1
	illum 2
	Ka 0.0000 0.0000 0.0000
	Kd 0.8784 0.3373 0.3373
	Ks 0.3500 0.3500 0.3500

newmtl wire_153228153
	Ns 32
	d 1
	Tr 1
	Tf 1 1 1
	illum 2
	Ka 0.0000 0.0000 0.0000
	Kd 0.6000 0.8941 0.6000
	Ks 0.3500 0.3500 0.3500

newmtl wire_229166215
	Ns 32
	d 1
	Tr 1
	Tf 1 1 1
	illum 2
	Ka 0.0000 0.0000 0.0000
	Kd 0.8980 0.6510 0.8431
	Ks 0.3500 0.3500 0.3500

newmtl wire_225143087
	Ns 32
	d 1
	Tr 1
	Tf 1 1 1
	illum 2
	Ka 0.0000 0.0000 0.0000
	Kd 0.8824 0.5608 0.3412
	Ks 0.3500 0.3500 0.3500

newmtl wire_085028177
	Ns 32
	d 1
	Tr 1
	Tf 1 1 1
	illum 2
	Ka 0.0000 0.0000 0.0000
	Kd 0.3333 0.1098 0.6941
	Ks 0.3500 0.3500 0.3500

newmtl Mirror
	Ns 10.0000
	Ni 1.5000
	d 1.0000
	Tr 1.0000
	Tf 1.0000 1.0000 1.0000 
	illum 2
	Ka 0.0000 0.0000 0.0000
	Kd 1.0000 1.0000 1.0000
	Ks 0.0000 0.0000 0.0000
	Ke 0.0000 0.0000 0.0000
	map_refl Map__20_Raytrace.tga

newmtl wire_225087143
	Ns 32
	d 1
	Tr 1
	Tf 1 1 1
	illum 2
	Ka 0.0000 0.0000 0.0000
	Kd 0.8824 0.3412 0.5608
	Ks 0.3500 0.3500 0.3500

newmtl wire_228153184
	Ns 32
	d 1
	Tr 1
	Tf 1 1 1
	illum 2
	Ka 0.0000 0.0000 0.0000
	Kd 0.8941 0.6000 0.7216
	Ks 0.3500 0.3500 0.3500

newmtl wire_214229166
	Ns 32
	d 1
	Tr 1
	Tf 1 1 1
	illum 2
	Ka 0.0000 0.0000 0.0000
	Kd 0.8392 0.8980 0.6510
	Ks 0.3500 0.3500 0.3500

newmtl wire_153228214
	Ns 32
	d 1
	Tr 1
	Tf 1 1 1
	illum 2
	Ka 0.0000 0.0000 0.0000
	Kd 0.6000 0.8941 0.8392
	Ks 0.3500 0.3500 0.3500

newmtl 20___Defaultffs
	Ns 10.0000
	Ni 1.5000
	d 1.0000
	Tr 1.0000
	Tf 1.0000 1.0000 1.0000 
	illum 2
	Ka 0.0000 0.0000 0.0000
	Kd 0.2941 0.7020 0.8549
	Ks 0.0000 0.0000 0.0000
	Ke 0.2157 0.3373 0.9529
	map_Ke Map__9_Raytrace.tga

newmtl 24___Default
	Ns 10.0000
	Ni 1.5000
	d 1.0000
	Tr 1.0000
	Tf 1.0000 1.0000 1.0000 
	illum 2
	Ka 0.0000 0.0000 0.0000
	Kd 0.5882 0.5882 0.5882
	Ks 0.0000 0.0000 0.0000
	Ke 0.0000 0.0000 0.0000
	map_Ka Stoneette6.png
	map_Kd Stoneette6.png

newmtl wire_008110135
	Ns 32
	d 1
	Tr 1
	Tf 1 1 1
	illum 2
	Ka 0.0000 0.0000 0.0000
	Kd 0.0314 0.4314 0.5294
	Ks 0.3500 0.3500 0.3500

newmtl 24___Defaultkhjk
	Ns 10.0000
	Ni 1.5000
	d 0.6000
	Tr 0.6000
	Tf 0.6000 0.6000 0.6000 
	illum 2
	Ka 0.0000 0.0000 0.0000
	Kd 0.5686 0.4471 0.2353
	Ks 0.0000 0.0000 0.0000
	Ke 0.0000 0.0000 0.0000
